<?xml version="1.0" encoding="UTF-8" standalone="no"?>
<svg width="24px" height="24px" viewBox="0 0 24 24" version="1.1" xmlns="http://www.w3.org/2000/svg" xmlns:xlink="http://www.w3.org/1999/xlink">
    <!-- Generator: Sketch 45.1 (43504) - http://www.bohemiancoding.com/sketch -->
    <title>icons/vid-pause</title>
    <desc>Created with Sketch.</desc>
    <defs></defs>
    <g id="Global" stroke="none" stroke-width="1" fill="none" fill-rule="evenodd">
        <g id="icons/vid-pause" fill="#42526E">
            <rect id="Rectangle-50" x="7" y="5" width="4" height="14" rx="1"></rect>
            <rect id="Rectangle-50-Copy" x="13" y="5" width="4" height="14" rx="1"></rect>
        </g>
    </g>
</svg>