// Jest Snapshot v1, https://goo.gl/fbAQLP

exports[`JIRA wiki markup - Misc should escape macros 1`] = `
Object {
  "content": Array [
    Object {
      "content": Array [
        Object {
          "text": "this is a {panel} text, not a macro",
          "type": "text",
        },
      ],
      "type": "paragraph",
    },
    Object {
      "attrs": Object {
        "panelType": "info",
      },
      "content": Array [
        Object {
          "type": "paragraph",
        },
      ],
      "type": "panel",
    },
  ],
  "type": "doc",
}
`;

exports[`JIRA wiki markup - Misc should escape monospace text 1`] = `
Object {
  "content": Array [
    Object {
      "content": Array [
        Object {
          "text": "this is a {{normal text}}, not a monospaced",
          "type": "text",
        },
      ],
      "type": "paragraph",
    },
  ],
  "type": "doc",
}
`;

exports[`JIRA wiki markup - Misc should find emojis and mentions in text 1`] = `
Object {
  "content": Array [
    Object {
      "content": Array [
        Object {
          "text": "this is a string with ",
          "type": "text",
        },
        Object {
          "attrs": Object {
            "id": "1f642",
            "shortName": ":slight_smile:",
            "text": "🙂",
          },
          "type": "emoji",
        },
        Object {
          "text": " emojis and ",
          "type": "text",
        },
        Object {
          "attrs": Object {
            "accessLevel": "",
            "id": "username",
            "text": "username",
            "userType": null,
          },
          "type": "mention",
        },
        Object {
          "text": " mentions",
          "type": "text",
        },
      ],
      "type": "paragraph",
    },
  ],
  "type": "doc",
}
`;

exports[`JIRA wiki markup - Misc should find emojis in text 1`] = `
Object {
  "content": Array [
    Object {
      "content": Array [
        Object {
          "text": "this is a string with ",
          "type": "text",
        },
        Object {
          "attrs": Object {
            "id": "1f642",
            "shortName": ":slight_smile:",
            "text": "🙂",
          },
          "type": "emoji",
        },
        Object {
          "text": " emojis in it ",
          "type": "text",
        },
        Object {
          "attrs": Object {
            "id": "1f49b",
            "shortName": ":yellow_heart:",
            "text": "💛",
          },
          "type": "emoji",
        },
        Object {
          "text": " tada",
          "type": "text",
        },
      ],
      "type": "paragraph",
    },
  ],
  "type": "doc",
}
`;

exports[`JIRA wiki markup - Misc should find emojis in text with marks 1`] = `
Object {
  "content": Array [
    Object {
      "content": Array [
        Object {
          "text": "this is a string ",
          "type": "text",
        },
        Object {
          "marks": Array [
            Object {
              "attrs": Object {
                "type": "sub",
              },
              "type": "subsup",
            },
          ],
          "text": "with ",
          "type": "text",
        },
        Object {
          "attrs": Object {
            "id": "1f642",
            "shortName": ":slight_smile:",
            "text": "🙂",
          },
          "type": "emoji",
        },
        Object {
          "marks": Array [
            Object {
              "attrs": Object {
                "type": "sub",
              },
              "type": "subsup",
            },
          ],
          "text": " emojis",
          "type": "text",
        },
        Object {
          "text": " in it ",
          "type": "text",
        },
        Object {
          "attrs": Object {
            "id": "1f49b",
            "shortName": ":yellow_heart:",
            "text": "💛",
          },
          "type": "emoji",
        },
        Object {
          "text": " tada",
          "type": "text",
        },
      ],
      "type": "paragraph",
    },
  ],
  "type": "doc",
}
`;
